…
For instance, in this state, it's simple to look at how many records we have per individual:

``` r
albatross_sf %>% 
  group_by(individual_id) %>% 
  tally()
```

    ## Simple feature collection with 28 features and 2 fields
    ## geometry type:  MULTIPOINT
    ## dimension:      XY
    ## bbox:           xmin: -91.3732 ymin: -12.79464 xmax: -77.51874 ymax: 0.1821983
    ## epsg (SRID):    4326
    ## proj4string:    +proj=longlat +datum=WGS84 +no_defs
    ## # A tibble: 28 x 3
    ##    individual_id     n          geometry
    ##           <fctr> <int>  <simple_feature>
    ##  1       2911059   757 <MULTIPOINT (...>
    ##  2       2911060  1113 <MULTIPOINT (...>
    ##  3       2911061   182 <MULTIPOINT (...>
    ##  4       2911062   573 <MULTIPOINT (...>
    ##  5       2911063   757 <MULTIPOINT (...>
    ##  6       2911064   633 <MULTIPOINT (...>
    ##  7       2911065   977 <MULTIPOINT (...>
    ##  8       2911066   647 <MULTIPOINT (...>
    ##  9       2911067  1503 <MULTIPOINT (...>
    ## 10       2911074  1326 <MULTIPOINT (...>
    ## # ... with 18 more rows
…
