…
It seems that `comment` arg is not yet fully implemented in CRAN version of `readr` so we must rely on `skip` to avoid the documentation block:

``` r
co2 <- read_table("ftp://aftp.cmdl.noaa.gov/products/trends/co2/co2_mm_mlo.txt",
                  col_names = c("year", "month", "decimal_date", 
                                "average", "interpolated", "trend", "days"),
                  col_types = c("iiddddi"),
                  na = c("-1", "-99.99"),
                  skip = 72)

co2
```

    ## # A tibble: 717 x 7
    ##     year month decimal_date average interpolated  trend  days
    ##    <int> <int>        <dbl>   <dbl>        <dbl>  <dbl> <int>
    ##  1  1958     3     1958.208  315.71       315.71 314.62    NA
    ##  2  1958     4     1958.292  317.45       317.45 315.29    NA
    ##  3  1958     5     1958.375  317.50       317.50 314.71    NA
    ##  4  1958     6     1958.458      NA       317.10 314.85    NA
    ##  5  1958     7     1958.542  315.86       315.86 314.98    NA
    ##  6  1958     8     1958.625  314.93       314.93 315.94    NA
    ##  7  1958     9     1958.708  313.20       313.20 315.91    NA
    ##  8  1958    10     1958.792      NA       312.66 315.61    NA
    ##  9  1958    11     1958.875  313.33       313.33 315.31    NA
    ## 10  1958    12     1958.958  314.67       314.67 315.61    NA
    ## # ... with 707 more rows
…
Subsetting data
===============

Subsetting can be done a variety of ways through baseR and tidyverse. Here we are going to cover the following ways: - `select()`, tidyverse - `filter()` , tidyverse - bracket `[]` notation, baseR - dollar sign `$` notation, baseR - subset function, baseR

``` r
co2[,"year"] 
```

    ## # A tibble: 717 x 1
    ##     year
    ##    <int>
    ##  1  1958
    ##  2  1958
    ##  3  1958
    ##  4  1958
    ##  5  1958
    ##  6  1958
    ##  7  1958
    ##  8  1958
    ##  9  1958
    ## 10  1958
    ## # ... with 707 more rows

``` r
co2[,1]
```

    ## # A tibble: 717 x 1
    ##     year
    ##    <int>
    ##  1  1958
    ##  2  1958
    ##  3  1958
    ##  4  1958
    ##  5  1958
    ##  6  1958
    ##  7  1958
    ##  8  1958
    ##  9  1958
    ## 10  1958
    ## # ... with 707 more rows
…
``` r
co2 %>% select(year, average) 
```

    ## # A tibble: 717 x 2
    ##     year average
    ##    <int>   <dbl>
    ##  1  1958  315.71
    ##  2  1958  317.45
    ##  3  1958  317.50
    ##  4  1958      NA
    ##  5  1958  315.86
    ##  6  1958  314.93
    ##  7  1958  313.20
    ##  8  1958      NA
    ##  9  1958  313.33
    ## 10  1958  314.67
    ## # ... with 707 more rows

``` r
co2[, c("year", "average")] 
```

    ## # A tibble: 717 x 2
    ##     year average
    ##    <int>   <dbl>
    ##  1  1958  315.71
    ##  2  1958  317.45
    ##  3  1958  317.50
    ##  4  1958      NA
    ##  5  1958  315.86
    ##  6  1958  314.93
    ##  7  1958  313.20
    ##  8  1958      NA
    ##  9  1958  313.33
    ## 10  1958  314.67
    ## # ... with 707 more rows

``` r
co2[, c(1,4)]
```

    ## # A tibble: 717 x 2
    ##     year average
    ##    <int>   <dbl>
    ##  1  1958  315.71
    ##  2  1958  317.45
    ##  3  1958  317.50
    ##  4  1958      NA
    ##  5  1958  315.86
    ##  6  1958  314.93
    ##  7  1958  313.20
    ##  8  1958      NA
    ##  9  1958  313.33
    ## 10  1958  314.67
    ## # ... with 707 more rows

``` r
co2 %>% select(-days)# select all columns except year
```

    ## # A tibble: 717 x 6
    ##     year month decimal_date average interpolated  trend
    ##    <int> <int>        <dbl>   <dbl>        <dbl>  <dbl>
    ##  1  1958     3     1958.208  315.71       315.71 314.62
    ##  2  1958     4     1958.292  317.45       317.45 315.29
    ##  3  1958     5     1958.375  317.50       317.50 314.71
    ##  4  1958     6     1958.458      NA       317.10 314.85
    ##  5  1958     7     1958.542  315.86       315.86 314.98
    ##  6  1958     8     1958.625  314.93       314.93 315.94
    ##  7  1958     9     1958.708  313.20       313.20 315.91
    ##  8  1958    10     1958.792      NA       312.66 315.61
    ##  9  1958    11     1958.875  313.33       313.33 315.31
    ## 10  1958    12     1958.958  314.67       314.67 315.61
    ## # ... with 707 more rows

``` r
co2[,-7]
```

    ## # A tibble: 717 x 6
    ##     year month decimal_date average interpolated  trend
    ##    <int> <int>        <dbl>   <dbl>        <dbl>  <dbl>
    ##  1  1958     3     1958.208  315.71       315.71 314.62
    ##  2  1958     4     1958.292  317.45       317.45 315.29
    ##  3  1958     5     1958.375  317.50       317.50 314.71
    ##  4  1958     6     1958.458      NA       317.10 314.85
    ##  5  1958     7     1958.542  315.86       315.86 314.98
    ##  6  1958     8     1958.625  314.93       314.93 315.94
    ##  7  1958     9     1958.708  313.20       313.20 315.91
    ##  8  1958    10     1958.792      NA       312.66 315.61
    ##  9  1958    11     1958.875  313.33       313.33 315.31
    ## 10  1958    12     1958.958  314.67       314.67 315.61
    ## # ... with 707 more rows

``` r
co2 %>% filter(year >= 1980, month == 12) # comma functions as "and" in the filter function
```

    ## # A tibble: 37 x 7
    ##     year month decimal_date average interpolated  trend  days
    ##    <int> <int>        <dbl>   <dbl>        <dbl>  <dbl> <int>
    ##  1  1980    12     1980.958  338.32       338.32 339.26    19
    ##  2  1981    12     1981.958  339.88       339.88 340.79    19
    ##  3  1982    12     1982.958  340.90       340.90 341.79    26
    ##  4  1983    12     1983.958  343.05       343.05 343.96    19
    ##  5  1984    12     1984.958  344.70       344.70 345.57    12
    ##  6  1985    12     1985.958  345.88       345.88 346.81    25
    ##  7  1986    12     1986.958  347.21       347.21 348.12    24
    ##  8  1987    12     1987.958  349.16       349.16 350.05    27
    ##  9  1988    12     1988.958  351.41       351.41 352.34    28
    ## 10  1989    12     1989.958  352.85       352.85 353.80    27
    ## # ... with 27 more rows

``` r
co2 %>% subset(year >= 1980 & month == 12)  # but and must be explicit in the subset function
```

    ## # A tibble: 37 x 7
    ##     year month decimal_date average interpolated  trend  days
    ##    <int> <int>        <dbl>   <dbl>        <dbl>  <dbl> <int>
    ##  1  1980    12     1980.958  338.32       338.32 339.26    19
    ##  2  1981    12     1981.958  339.88       339.88 340.79    19
    ##  3  1982    12     1982.958  340.90       340.90 341.79    26
    ##  4  1983    12     1983.958  343.05       343.05 343.96    19
    ##  5  1984    12     1984.958  344.70       344.70 345.57    12
    ##  6  1985    12     1985.958  345.88       345.88 346.81    25
    ##  7  1986    12     1986.958  347.21       347.21 348.12    24
    ##  8  1987    12     1987.958  349.16       349.16 350.05    27
    ##  9  1988    12     1988.958  351.41       351.41 352.34    28
    ## 10  1989    12     1989.958  352.85       352.85 353.80    27
    ## # ... with 27 more rows

``` r
co2 %>% filter(month == 11 | month == 11) # | is equivalent to "or"
```

    ## # A tibble: 60 x 7
    ##     year month decimal_date average interpolated  trend  days
    ##    <int> <int>        <dbl>   <dbl>        <dbl>  <dbl> <int>
    ##  1  1958    11     1958.875  313.33       313.33 315.31    NA
    ##  2  1959    11     1959.875  314.80       314.80 316.78    NA
    ##  3  1960    11     1960.875  315.00       315.00 316.98    NA
    ##  4  1961    11     1961.875  316.10       316.10 318.13    NA
    ##  5  1962    11     1962.875  316.69       316.69 318.62    NA
    ##  6  1963    11     1963.875  317.12       317.12 319.10    NA
    ##  7  1964    11     1964.875  317.79       317.79 319.72    NA
    ##  8  1965    11     1965.875  318.87       318.87 320.87    NA
    ##  9  1966    11     1966.875  319.79       319.79 321.84    NA
    ## 10  1967    11     1967.875  320.72       320.72 322.78    NA
    ## # ... with 50 more rows

``` r
co2[co2$month==12,] 
```

    ## # A tibble: 59 x 7
    ##     year month decimal_date average interpolated  trend  days
    ##    <int> <int>        <dbl>   <dbl>        <dbl>  <dbl> <int>
    ##  1  1958    12     1958.958  314.67       314.67 315.61    NA
    ##  2  1959    12     1959.958  315.58       315.58 316.52    NA
    ##  3  1960    12     1960.958  316.19       316.19 317.13    NA
    ##  4  1961    12     1961.958  317.01       317.01 317.94    NA
    ##  5  1962    12     1962.958  317.69       317.69 318.61    NA
    ##  6  1963    12     1963.958  318.31       318.31 319.25    NA
    ##  7  1964    12     1964.958  318.71       318.71 319.59    NA
    ##  8  1965    12     1965.958  319.42       319.42 320.26    NA
    ##  9  1966    12     1966.958  321.08       321.08 321.95    NA
    ## 10  1967    12     1967.958  321.96       321.96 322.86    NA
    ## # ... with 49 more rows

``` r
co2[co2$year>=1980 & co2$month==12,]
```

    ## # A tibble: 37 x 7
    ##     year month decimal_date average interpolated  trend  days
    ##    <int> <int>        <dbl>   <dbl>        <dbl>  <dbl> <int>
    ##  1  1980    12     1980.958  338.32       338.32 339.26    19
    ##  2  1981    12     1981.958  339.88       339.88 340.79    19
    ##  3  1982    12     1982.958  340.90       340.90 341.79    26
    ##  4  1983    12     1983.958  343.05       343.05 343.96    19
    ##  5  1984    12     1984.958  344.70       344.70 345.57    12
    ##  6  1985    12     1985.958  345.88       345.88 346.81    25
    ##  7  1986    12     1986.958  347.21       347.21 348.12    24
    ##  8  1987    12     1987.958  349.16       349.16 350.05    27
    ##  9  1988    12     1988.958  351.41       351.41 352.34    28
    ## 10  1989    12     1989.958  352.85       352.85 353.80    27
    ## # ... with 27 more rows

``` r
co2[co2$month==12 | co2$month==11,] 
```

    ## # A tibble: 119 x 7
    ##     year month decimal_date average interpolated  trend  days
    ##    <int> <int>        <dbl>   <dbl>        <dbl>  <dbl> <int>
    ##  1  1958    11     1958.875  313.33       313.33 315.31    NA
    ##  2  1958    12     1958.958  314.67       314.67 315.61    NA
    ##  3  1959    11     1959.875  314.80       314.80 316.78    NA
    ##  4  1959    12     1959.958  315.58       315.58 316.52    NA
    ##  5  1960    11     1960.875  315.00       315.00 316.98    NA
    ##  6  1960    12     1960.958  316.19       316.19 317.13    NA
    ##  7  1961    11     1961.875  316.10       316.10 318.13    NA
    ##  8  1961    12     1961.958  317.01       317.01 317.94    NA
    ##  9  1962    11     1962.875  316.69       316.69 318.62    NA
    ## 10  1962    12     1962.958  317.69       317.69 318.61    NA
    ## # ... with 109 more rows
…
### SideNote: Whats that little `c()` do?

Try running `?c` in your R console to find out. We use this function regularly to create vectors or lists of objects.

### SideNote: The Power of the Pipe `%>%`

You might be thinking what is that weird symbol we just used? This is a pipe, a function in the `magittr` package loaded in the tidyverse, Pipes are a powerful way to perform sequential operations on an R object. Using the pipe, allows use to push the output of our first operation into our next operation seamlessly, without using intermediate objects or overwriting our original object.

``` r
co2 %>% 
  filter(year >= 1980, month == 12) %>%
  select(year, average)
```

    ## # A tibble: 37 x 2
    ##     year average
    ##    <int>   <dbl>
    ##  1  1980  338.32
    ##  2  1981  339.88
    ##  3  1982  340.90
    ##  4  1983  343.05
    ##  5  1984  344.70
    ##  6  1985  345.88
    ##  7  1986  347.21
    ##  8  1987  349.16
    ##  9  1988  351.41
    ## 10  1989  352.85
    ## # ... with 27 more rows

``` r
# This is the same but much more readable and much cleaner than the following:

co2_filter <- filter(co2, year >= 1980, month == 12)
co2_subset <- select(co2_filter, year, average)
co2_subset
```

    ## # A tibble: 37 x 2
    ##     year average
    ##    <int>   <dbl>
    ##  1  1980  338.32
    ##  2  1981  339.88
    ##  3  1982  340.90
    ##  4  1983  343.05
    ##  5  1984  344.70
    ##  6  1985  345.88
    ##  7  1986  347.21
    ##  8  1987  349.16
    ##  9  1988  351.41
    ## 10  1989  352.85
    ## # ... with 27 more rows
…
Sorting data
============

Often data is not in the exact form we want or we need additional information from our data. When this is the case, the tidyverse library has some helpful functions that, when combined, are powerful tools for rearranging and summarizing our data.

Group By & Summarise
--------------------

`group_by` allows us to invisibly partition our data into groups which can be powerful when we later want to applied functions or look at statistics on groups together. Take a look, you'll notice the only thing that changes when group\_by years in the co2 dataframe, is the addition of a small line in the tibble header: "\# Groups: year \[60\]"

``` r
co2 %>% group_by(year)
```

    ## # A tibble: 717 x 7
    ## # Groups:   year [60]
    ##     year month decimal_date average interpolated  trend  days
    ##    <int> <int>        <dbl>   <dbl>        <dbl>  <dbl> <int>
    ##  1  1958     3     1958.208  315.71       315.71 314.62    NA
    ##  2  1958     4     1958.292  317.45       317.45 315.29    NA
    ##  3  1958     5     1958.375  317.50       317.50 314.71    NA
    ##  4  1958     6     1958.458      NA       317.10 314.85    NA
    ##  5  1958     7     1958.542  315.86       315.86 314.98    NA
    ##  6  1958     8     1958.625  314.93       314.93 315.94    NA
    ##  7  1958     9     1958.708  313.20       313.20 315.91    NA
    ##  8  1958    10     1958.792      NA       312.66 315.61    NA
    ##  9  1958    11     1958.875  313.33       313.33 315.31    NA
    ## 10  1958    12     1958.958  314.67       314.67 315.61    NA
    ## # ... with 707 more rows

Everything else appears the same! We still have 716 rows and 10 columns. All the names are the same. BUT.... if we pass this new grouped dataframe into another function like `summarise`, check out what happens:

``` r
co2 %>% group_by(year) %>% summarise(`Number of measurements` = n(), `Average year's trend` = mean(trend))
```

    ## # A tibble: 60 x 3
    ##     year `Number of measurements` `Average year's trend`
    ##    <int>                    <int>                  <dbl>
    ##  1  1958                       10               315.2830
    ##  2  1959                       12               315.9742
    ##  3  1960                       12               316.9075
    ##  4  1961                       12               317.6367
    ##  5  1962                       12               318.4500
    ##  6  1963                       12               318.9942
    ##  7  1964                       12               319.6217
    ##  8  1965                       12               320.0433
    ##  9  1966                       12               321.3833
    ## 10  1967                       12               322.1567
    ## # ... with 50 more rows
…
But once we "group" the dataframe, R knows to compute our functions across the groups we specify.

Mutating
--------

The `mutate` function is similar to `summarise` in that it allows you to take values from within a data table, compute something new, but in this case, the R will append it as a new column to the original dataframe. For instance, perhaps we wanted to make a column combining the year and month for our dataset

``` r
co2 %>% mutate(month_year = paste0(month,"/", year))
```

    ## # A tibble: 717 x 8
    ##     year month decimal_date average interpolated  trend  days month_year
    ##    <int> <int>        <dbl>   <dbl>        <dbl>  <dbl> <int>      <chr>
    ##  1  1958     3     1958.208  315.71       315.71 314.62    NA     3/1958
    ##  2  1958     4     1958.292  317.45       317.45 315.29    NA     4/1958
    ##  3  1958     5     1958.375  317.50       317.50 314.71    NA     5/1958
    ##  4  1958     6     1958.458      NA       317.10 314.85    NA     6/1958
    ##  5  1958     7     1958.542  315.86       315.86 314.98    NA     7/1958
    ##  6  1958     8     1958.625  314.93       314.93 315.94    NA     8/1958
    ##  7  1958     9     1958.708  313.20       313.20 315.91    NA     9/1958
    ##  8  1958    10     1958.792      NA       312.66 315.61    NA    10/1958
    ##  9  1958    11     1958.875  313.33       313.33 315.31    NA    11/1958
    ## 10  1958    12     1958.958  314.67       314.67 315.61    NA    12/1958
    ## # ... with 707 more rows

`group by` functions also work to group things before`mutate` functions. FOr instance, if we wanted a column that averaged the temperature across each year?

``` r
co2 %>% group_by(year) %>% mutate(year_average= mean(average, na.rm=TRUE))
```

    ## # A tibble: 717 x 8
    ## # Groups:   year [60]
    ##     year month decimal_date average interpolated  trend  days year_average
    ##    <int> <int>        <dbl>   <dbl>        <dbl>  <dbl> <int>        <dbl>
    ##  1  1958     3     1958.208  315.71       315.71 314.62    NA     315.3313
    ##  2  1958     4     1958.292  317.45       317.45 315.29    NA     315.3313
    ##  3  1958     5     1958.375  317.50       317.50 314.71    NA     315.3313
    ##  4  1958     6     1958.458      NA       317.10 314.85    NA     315.3313
    ##  5  1958     7     1958.542  315.86       315.86 314.98    NA     315.3313
    ##  6  1958     8     1958.625  314.93       314.93 315.94    NA     315.3313
    ##  7  1958     9     1958.708  313.20       313.20 315.91    NA     315.3313
    ##  8  1958    10     1958.792      NA       312.66 315.61    NA     315.3313
    ##  9  1958    11     1958.875  313.33       313.33 315.31    NA     315.3313
    ## 10  1958    12     1958.958  314.67       314.67 315.61    NA     315.3313
    ## # ... with 707 more rows
…
