…
Task 2: Clean & manipulate the data
===================================

Let's try cleaning up this dataset a bit.

Filter only the years that have data for both hare and lynx.

``` r
data %>%
  select(year, hare, lynx) %>%
  filter(!is.na(hare), !is.na(lynx))
```

    ## # A tibble: 49 x 3
    ##     year  hare  lynx
    ##    <int> <int> <int>
    ##  1  1852 80000  2174
    ##  2  1853 80000  2106
    ##  3  1854 90000  3021
    ##  4  1855 69000  4754
    ##  5  1856 81000  7324
    ##  6  1857 95000  8197
    ##  7  1858 71000  6913
    ##  8  1859 28000  4772
    ##  9  1860 18000  2383
    ## 10  1861 19000  1540
    ## # ... with 39 more rows

The scales of the populations are very different - a log scale may make these easier to compare. Mutate two new columns and take the log of the original hare and lynx columns.

``` r
data %>%
  select(year, hare, lynx) %>%
  filter(!is.na(hare), !is.na(lynx)) %>% 
  mutate(hare = log(hare), lynx = log(lynx))
```

    ## # A tibble: 49 x 3
    ##     year  hare  lynx
    ##    <int> <dbl> <dbl>
    ##  1  1852 11.3   7.68
    ##  2  1853 11.3   7.65
    ##  3  1854 11.4   8.01
    ##  4  1855 11.1   8.47
    ##  5  1856 11.3   8.90
    ##  6  1857 11.5   9.01
    ##  7  1858 11.2   8.84
    ##  8  1859 10.2   8.47
    ##  9  1860  9.80  7.78
    ## 10  1861  9.85  7.34
    ## # ... with 39 more rows
…
