…
# combine this function with the `mutate` function we learned earlier

temp %>% 
  rowwise %>% 
  mutate(JAN_kelvin = celsius_to_kelvin(JAN)) %>% 
  select(YEAR, JAN, JAN_kelvin)
```

    ## Source: local data frame [81 x 3]
    ## Groups: <by row>
    ## 
    ## # A tibble: 81 x 3
    ##     YEAR   JAN JAN_kelvin
    ##    <int> <dbl>      <dbl>
    ##  1  1937    NA    -999.00
    ##  2  1938 -8.68     264.47
    ##  3  1939 -7.77     265.38
    ##  4  1940 -6.76     266.39
    ##  5  1941 -7.25     265.90
    ##  6  1942 -7.35     265.80
    ##  7  1943 -9.74     263.41
    ##  8  1944 -7.53     265.62
    ##  9  1945 -4.02     269.13
    ## 10  1946 -8.61     264.54
    ## # ... with 71 more rows
…
Alternatively, R has a nifty `ifelse()` function that simplifies this into one line.

`ifelse(test, yes, no)`

For instance, adapting our above function directly into a mutate command:

``` r
temp %>% 
  mutate(JAN_kelvin = ifelse(is.na(JAN), -999, JAN + 273)) %>% 
  select(YEAR, JAN, JAN_kelvin) 
```

    ## # A tibble: 81 x 3
    ##     YEAR   JAN JAN_kelvin
    ##    <int> <dbl>      <dbl>
    ##  1  1937    NA    -999.00
    ##  2  1938 -8.68     264.32
    ##  3  1939 -7.77     265.23
    ##  4  1940 -6.76     266.24
    ##  5  1941 -7.25     265.75
    ##  6  1942 -7.35     265.65
    ##  7  1943 -9.74     263.26
    ##  8  1944 -7.53     265.47
    ##  9  1945 -4.02     268.98
    ## 10  1946 -8.61     264.39
    ## # ... with 71 more rows
…
